{
    "@class": "com.kony.gen.viz.model.component.KVizButton",
    "DNDConfig": null,
    "__parentReadjusting__": false,
    "_height_": {
        "type": "string",
        "value": "5%"
    },
    "_left_": {
        "type": "string",
        "value": "0dp"
    },
    "_margin_": [
        6,
        6,
        6,
        6
    ],
    "_padding_": [
        0,
        0,
        0,
        0
    ],
    "_skin_": "sf20d6e64b94425990f7ff14b05c4729",
    "_text_": "Back",
    "_top_": {
        "type": "string",
        "value": "0dp"
    },
    "_width_": {
        "type": "string",
        "value": "100%"
    },
    "canUpdateUI": true,
    "centerx": {
        "type": "string",
        "value": "50%"
    },
    "containerweight": 100,
    "contentalignment": 5,
    "displaytext": true,
    "focusskin": "s1f3b68f72ea4f9f82e59fe800429d4d",
    "id": "btnBack",
    "ide_onClick": "AS_Button_a7f488fa43c4442db6aa32c6233ae209",
    "info": null,
    "iscustomlayout": false,
    "isvisible": true,
    "kuid": "eee41bf9793a40feadb76d614a126b91",
    "name": "kony.ui.Button",
    "parent": "flxParent",
    "pf": "frmChat",
    "retaincontentalignment": false,
    "retainflexpositionproperties": false,
    "wType": "Button",
    "zindex": 1
}